[
    {
        "module_id": "M-0",
        "id": "A-0",
        "number": 1,
        "learning_outcomes": ["LO1", "LO2"],
        "volume": "2000 words",
        "weight": "70%",
        "submission_date": "2/5/2019"
    },
    {
        "module_id": "M-0",
        "id": "A-1",
        "number": 2,
        "learning_outcomes": ["LO1", "LO2"],
        "volume": "1000 words",
        "weight": "30%",
        "submission_date": "2/5/2019"
    },
    {
        "module_id": "M-1",
        "id": "A-2",
        "number": 1,
        "learning_outcomes": ["LO1", "LO2"],
        "volume": "2000 words",
        "weight": "50%",
        "submission_date": "2/5/2019"
    },
    {
        "module_id": "M-1",
        "id": "A-3",
        "number": 2,
        "learning_outcomes": ["LO1", "LO2"],
        "volume": "2000 words",
        "weight": "50%",
        "submission_date": "2/5/2019"
    },
    {
        "module_id": "M-2",
        "id": "A-4",
        "number": 1,
        "learning_outcomes": ["LO1", "LO2"],
        "volume": "3000 words",
        "weight": "80%",
        "submission_date": "2/5/2019"
    },
    {
        "module_id": "M-2",
        "id": "A-5",
        "number": 2,
        "learning_outcomes": ["LO1", "LO2"],
        "volume": "1000 words",
        "weight": "20%",
        "submission_date": "2/5/2019"
    },
    {
        "module_id": "M-3",
        "id": "A-6",
        "number": 1,
        "learning_outcomes": ["LO1", "LO2"],
        "volume": "2000 words",
        "weight": "50%",
        "submission_date": "2/5/2019"
    },
    {
        "module_id": "M-3",
        "id": "A-7",
        "number": 2,
        "learning_outcomes": ["LO1", "LO2"],
        "volume": "2000 words",
        "weight": "50%",
        "submission_date": "2/5/2019"
    },
    {
        "module_id": "M-4",
        "id": "A-8",
        "number": 1,
        "learning_outcomes": ["LO1", "LO2"],
        "volume": "3000 words",
        "weight": "80%",
        "submission_date": "2/5/2019"
    },
    {
        "module_id": "M-4",
        "id": "A-9",
        "number": 2,
        "learning_outcomes": ["LO1", "LO2"],
        "volume": "1000 words",
        "weight": "20%",
        "submission_date": "2/5/2019"
    },
    {
        "module_id": "M-5",
        "id": "A-10",
        "number": 1,
        "learning_outcomes": ["LO1", "LO2"],
        "volume": "2000 words",
        "weight": "50%",
        "submission_date": "2/5/2019"
    },
    {
        "module_id": "M-5",
        "id": "A-11",
        "number": 2,
        "learning_outcomes": ["LO1", "LO2"],
        "volume": "2000 words",
        "weight": "50%",
        "submission_date": "2/5/2019"
    }
]